// Jest Snapshot v1, https://goo.gl/fbAQLP

exports[`Header component snapshot header component 1`] = `
<div
  className=" header"
  data-test="header"
>
  <i
    className="fab fa-youtube"
    data-test="youtube-icon"
  />
  <h1
    className="youtube-title"
    data-test="youtube-title"
  >
    YouTube
  </h1>
</div>
`;
