// Jest Snapshot v1, https://goo.gl/fbAQLP

exports[`loginPage component snapshot homepage component 1`] = `
<form
  className="login-form"
  data-test="login-form"
  onSubmit={[Function]}
>
  <div
    className="login-container"
  >
    <a
      className="login-logo"
      href="/"
      onClick={[Function]}
    >
      <i
        className="fab fa-youtube "
        data-test="youtube-icon"
      />
      <h1
        className="login-header"
      >
        YouTube
      </h1>
    </a>
    <div
      className="user-name"
    >
      <input
        className="user-input"
        name="userName"
        onChange={[Function]}
        placeholder="username"
        type="text"
      />
    </div>
    <div
      className="password"
    >
      <input
        className="password-input"
        name="pwd"
        onChange={[Function]}
        placeholder="password"
        type="password"
      />
    </div>
    <button
      className="login-btn"
      onSubmit={[Function]}
      type="submit"
    >
      Login
    </button>
  </div>
</form>
`;
